simulation/qsim/laboratorio_VHDL_Luigi.msim.vcd
$comment
	File created using the following command:
		vcd file laboratorio_VHDL_Luigi.msim.vcd -direction
$end
$date
	Thu Oct 25 20:25:07 2018
$end
$version
	ModelSim Version 10.5b
$end
$timescale
	1ps
$end

$scope module pand_vhd_vec_tst $end
$var wire 1 ! A $end
$var wire 1 " B $end
$var wire 1 # pout $end

$scope module i1 $end
$var wire 1 $ gnd $end
$var wire 1 % vcc $end
$var wire 1 & unknown $end
$var wire 1 ' devoe $end
$var wire 1 ( devclrn $end
$var wire 1 ) devpor $end
$var wire 1 * ww_devoe $end
$var wire 1 + ww_devclrn $end
$var wire 1 , ww_devpor $end
$var wire 1 - ww_A $end
$var wire 1 . ww_B $end
$var wire 1 / ww_pout $end
$var wire 1 0 \~QUARTUS_CREATED_GND~I_combout\ $end
$var wire 1 1 \B~input_o\ $end
$var wire 1 2 \A~input_o\ $end
$var wire 1 3 \pout~0_combout\ $end
$var wire 1 4 \ALT_INV_A~input_o\ $end
$var wire 1 5 \ALT_INV_B~input_o\ $end
$upscope $end
$upscope $end
$enddefinitions $end
#0
$dumpvars
0!
0"
0#
0$
1%
x&
1'
1(
1)
1*
1+
1,
0-
0.
0/
x0
01
02
03
14
15
$end
#10000
1"
1.
11
05
#20000
0"
1!
0.
1-
12
01
15
04
#30000
1"
1.
11
05
13
1/
1#
#40000
0"
0!
0.
0-
02
01
15
14
03
0/
0#
#50000
1"
1.
11
05
#60000
0"
1!
0.
1-
12
01
15
04
#70000
1"
1.
11
05
13
1/
1#
#80000
0"
0!
0.
0-
02
01
15
14
03
0/
0#
#90000
1"
1.
11
05
#100000
0"
1!
0.
1-
12
01
15
04
#110000
1"
1.
11
05
13
1/
1#
#120000
0"
0!
0.
0-
02
01
15
14
03
0/
0#
#130000
1"
1.
11
05
#140000
0"
1!
0.
1-
12
01
15
04
#150000
1"
1.
11
05
13
1/
1#
#160000
0"
0!
0.
0-
02
01
15
14
03
0/
0#
#170000
1"
1.
11
05
#180000
0"
1!
0.
1-
12
01
15
04
#190000
1"
1.
11
05
13
1/
1#
#200000
0"
0!
0.
0-
02
01
15
14
03
0/
0#
#210000
1"
1.
11
05
#220000
0"
1!
0.
1-
12
01
15
04
#230000
1"
1.
11
05
13
1/
1#
#240000
0"
0!
0.
0-
02
01
15
14
03
0/
0#
#250000
1"
1.
11
05
#260000
0"
1!
0.
1-
12
01
15
04
#270000
1"
1.
11
05
13
1/
1#
#280000
0"
0!
0.
0-
02
01
15
14
03
0/
0#
#290000
1"
1.
11
05
#300000
0"
1!
0.
1-
12
01
15
04
#310000
1"
1.
11
05
13
1/
1#
#320000
0"
0!
0.
0-
02
01
15
14
03
0/
0#
#330000
1"
1.
11
05
#340000
0"
1!
0.
1-
12
01
15
04
#350000
1"
1.
11
05
13
1/
1#
#360000
0"
0!
0.
0-
02
01
15
14
03
0/
0#
#370000
1"
1.
11
05
#380000
0"
1!
0.
1-
12
01
15
04
#390000
1"
1.
11
05
13
1/
1#
#400000
0"
0!
0.
0-
02
01
15
14
03
0/
0#
#410000
1"
1.
11
05
#420000
0"
1!
0.
1-
12
01
15
04
#430000
1"
1.
11
05
13
1/
1#
#440000
0"
0!
0.
0-
02
01
15
14
03
0/
0#
#450000
1"
1.
11
05
#460000
0"
1!
0.
1-
12
01
15
04
#470000
1"
1.
11
05
13
1/
1#
#480000
0"
0!
0.
0-
02
01
15
14
03
0/
0#
#490000
1"
1.
11
05
#500000
0"
1!
0.
1-
12
01
15
04
#510000
1"
1.
11
05
13
1/
1#
#520000
0"
0!
0.
0-
02
01
15
14
03
0/
0#
#530000
1"
1.
11
05
#540000
0"
1!
0.
1-
12
01
15
04
#550000
1"
1.
11
05
13
1/
1#
#560000
0"
0!
0.
0-
02
01
15
14
03
0/
0#
#570000
1"
1.
11
05
#580000
0"
1!
0.
1-
12
01
15
04
#590000
1"
1.
11
05
13
1/
1#
#600000
0"
0!
0.
0-
02
01
15
14
03
0/
0#
#610000
1"
1.
11
05
#620000
0"
1!
0.
1-
12
01
15
04
#630000
1"
1.
11
05
13
1/
1#
#640000
0"
0!
0.
0-
02
01
15
14
03
0/
0#
#650000
1"
1.
11
05
#660000
0"
1!
0.
1-
12
01
15
04
#670000
1"
1.
11
05
13
1/
1#
#680000
0"
0!
0.
0-
02
01
15
14
03
0/
0#
#690000
1"
1.
11
05
#700000
0"
1!
0.
1-
12
01
15
04
#710000
1"
1.
11
05
13
1/
1#
#720000
0"
0!
0.
0-
02
01
15
14
03
0/
0#
#730000
1"
1.
11
05
#740000
0"
1!
0.
1-
12
01
15
04
#750000
1"
1.
11
05
13
1/
1#
#760000
0"
0!
0.
0-
02
01
15
14
03
0/
0#
#770000
1"
1.
11
05
#780000
0"
1!
0.
1-
12
01
15
04
#790000
1"
1.
11
05
13
1/
1#
#800000
0"
0!
0.
0-
02
01
15
14
03
0/
0#
#810000
1"
1.
11
05
#820000
0"
1!
0.
1-
12
01
15
04
#830000
1"
1.
11
05
13
1/
1#
#840000
0"
0!
0.
0-
02
01
15
14
03
0/
0#
#850000
1"
1.
11
05
#860000
0"
1!
0.
1-
12
01
15
04
#870000
1"
1.
11
05
13
1/
1#
#880000
0"
0!
0.
0-
02
01
15
14
03
0/
0#
#890000
1"
1.
11
05
#900000
0"
1!
0.
1-
12
01
15
04
#910000
1"
1.
11
05
13
1/
1#
#920000
0"
0!
0.
0-
02
01
15
14
03
0/
0#
#930000
1"
1.
11
05
#940000
0"
1!
0.
1-
12
01
15
04
#950000
1"
1.
11
05
13
1/
1#
#960000
0"
0!
0.
0-
02
01
15
14
03
0/
0#
#970000
1"
1.
11
05
#980000
0"
1!
0.
1-
12
01
15
04
#990000
1"
1.
11
05
13
1/
1#
