simulation/qsim/laboratorio_VHDL_Luigi.msim.vcd
$comment
	File created using the following command:
		vcd file laboratorio_VHDL_Luigi.msim.vcd -direction
$end
$date
	Thu Oct 25 17:40:00 2018
$end
$version
	ModelSim Version 10.5b
$end
$timescale
	1ps
$end

$scope module jk_ff_vhd_vec_tst $end
$var wire 1 ! clock $end
$var wire 1 " J $end
$var wire 1 # K $end
$var wire 1 $ Q $end
$var wire 1 % Qbar $end

$scope module i1 $end
$var wire 1 & gnd $end
$var wire 1 ' vcc $end
$var wire 1 ( unknown $end
$var wire 1 ) devoe $end
$var wire 1 * devclrn $end
$var wire 1 + devpor $end
$var wire 1 , ww_devoe $end
$var wire 1 - ww_devclrn $end
$var wire 1 . ww_devpor $end
$var wire 1 / ww_clock $end
$var wire 1 0 ww_J $end
$var wire 1 1 ww_K $end
$var wire 1 2 ww_Q $end
$var wire 1 3 ww_Qbar $end
$var wire 1 4 \~QUARTUS_CREATED_GND~I_combout\ $end
$var wire 1 5 \clock~input_o\ $end
$var wire 1 6 \K~input_o\ $end
$var wire 1 7 \J~input_o\ $end
$var wire 1 8 \Mux0~0_combout\ $end
$var wire 1 9 \state~feeder_combout\ $end
$var wire 1 : \state~q\ $end
$var wire 1 ; \ALT_INV_state~q\ $end
$var wire 1 < \ALT_INV_Mux0~0_combout\ $end
$var wire 1 = \ALT_INV_J~input_o\ $end
$var wire 1 > \ALT_INV_K~input_o\ $end
$upscope $end
$upscope $end
$enddefinitions $end
#0
$dumpvars
0!
0"
0#
0$
1%
0&
1'
x(
1)
1*
1+
1,
1-
1.
0/
00
01
02
13
x4
05
06
07
08
09
0:
1;
1<
1=
1>
$end
#20000
1!
1/
15
#40000
0!
1#
0/
11
16
05
0>
#60000
1!
1/
15
#80000
0!
0#
1"
0/
01
10
17
06
05
1>
0=
18
0<
19
#100000
1!
1/
15
1:
0;
12
03
1$
0%
#120000
0!
1#
0/
11
16
05
0>
08
1<
09
#140000
1!
1/
15
0:
1;
18
0<
02
13
19
0$
1%
#160000
0!
0#
0"
0/
01
00
07
06
05
1>
1=
08
1<
09
#180000
1!
1/
15
#200000
0!
1#
0/
11
16
05
0>
#220000
1!
1/
15
#240000
0!
0#
1"
0/
01
10
17
06
05
1>
0=
18
0<
19
#260000
1!
1/
15
1:
0;
12
03
1$
0%
#280000
0!
1#
0/
11
16
05
0>
08
1<
09
#300000
1!
1/
15
0:
1;
18
0<
02
13
19
0$
1%
#320000
0!
0#
0"
0/
01
00
07
06
05
1>
1=
08
1<
09
#340000
1!
1/
15
#360000
0!
1#
0/
11
16
05
0>
#380000
1!
1/
15
#400000
0!
0#
1"
0/
01
10
17
06
05
1>
0=
18
0<
19
#420000
1!
1/
15
1:
0;
12
03
1$
0%
#440000
0!
1#
0/
11
16
05
0>
08
1<
09
#460000
1!
1/
15
0:
1;
18
0<
02
13
19
0$
1%
#480000
0!
0#
0"
0/
01
00
07
06
05
1>
1=
08
1<
09
#500000
1!
1/
15
#520000
0!
1#
0/
11
16
05
0>
#540000
1!
1/
15
#560000
0!
0#
1"
0/
01
10
17
06
05
1>
0=
18
0<
19
#580000
1!
1/
15
1:
0;
12
03
1$
0%
#600000
0!
1#
0/
11
16
05
0>
08
1<
09
#620000
1!
1/
15
0:
1;
18
0<
02
13
19
0$
1%
#640000
0!
0#
0"
0/
01
00
07
06
05
1>
1=
08
1<
09
#660000
1!
1/
15
#680000
0!
1#
0/
11
16
05
0>
#700000
1!
1/
15
#720000
0!
0#
1"
0/
01
10
17
06
05
1>
0=
18
0<
19
#740000
1!
1/
15
1:
0;
12
03
1$
0%
#760000
0!
1#
0/
11
16
05
0>
08
1<
09
#780000
1!
1/
15
0:
1;
18
0<
02
13
19
0$
1%
#800000
0!
0#
0"
0/
01
00
07
06
05
1>
1=
08
1<
09
#820000
1!
1/
15
#840000
0!
1#
0/
11
16
05
0>
#860000
1!
1/
15
#880000
0!
0#
1"
0/
01
10
17
06
05
1>
0=
18
0<
19
#900000
1!
1/
15
1:
0;
12
03
1$
0%
#920000
0!
1#
0/
11
16
05
0>
08
1<
09
#940000
1!
1/
15
0:
1;
18
0<
02
13
19
0$
1%
#960000
0!
0#
0"
0/
01
00
07
06
05
1>
1=
08
1<
09
#980000
1!
1/
15
