QUESTAO_1/simulation/qsim/QUESTAO_1.msim.vcd
$comment
	File created using the following command:
		vcd file QUESTAO_1.msim.vcd -direction
$end
$date
	Wed Oct 24 14:47:22 2018
$end
$version
	ModelSim Version 10.5b
$end
$timescale
	1ps
$end

$scope module registrador_tipo_d_vhd_vec_tst $end
$var wire 1 ! clk $end
$var wire 1 " pin $end
$var wire 1 # pout $end

$scope module i1 $end
$var wire 1 $ gnd $end
$var wire 1 % vcc $end
$var wire 1 & unknown $end
$var wire 1 ' devoe $end
$var wire 1 ( devclrn $end
$var wire 1 ) devpor $end
$var wire 1 * ww_devoe $end
$var wire 1 + ww_devclrn $end
$var wire 1 , ww_devpor $end
$var wire 1 - ww_clk $end
$var wire 1 . ww_pin $end
$var wire 1 / ww_pout $end
$var wire 1 0 \~QUARTUS_CREATED_GND~I_combout\ $end
$var wire 1 1 \pin~input_o\ $end
$var wire 1 2 \clk~input_o\ $end
$var wire 1 3 \pout$latch~combout\ $end
$var wire 1 4 \ALT_INV_pout$latch~combout\ $end
$var wire 1 5 \ALT_INV_pin~input_o\ $end
$var wire 1 6 \ALT_INV_clk~input_o\ $end
$upscope $end
$upscope $end
$enddefinitions $end
#0
$dumpvars
0!
0"
x#
0$
1%
x&
1'
1(
1)
1*
1+
1,
0-
0.
x/
x0
01
02
x3
x4
15
16
$end
#10000
1!
1-
12
06
03
14
0/
0#
#20000
0!
1"
0-
1.
11
02
16
05
#30000
1!
1-
12
06
13
04
1/
1#
#40000
0!
0"
0-
0.
01
02
16
15
#50000
1!
1-
12
06
03
14
0/
0#
#60000
0!
1"
0-
1.
11
02
16
05
#70000
1!
1-
12
06
13
04
1/
1#
#80000
0!
0"
0-
0.
01
02
16
15
#90000
1!
1-
12
06
03
14
0/
0#
#100000
0!
1"
0-
1.
11
02
16
05
#110000
1!
1-
12
06
13
04
1/
1#
#120000
0!
0"
0-
0.
01
02
16
15
#130000
1!
1-
12
06
03
14
0/
0#
#140000
0!
1"
0-
1.
11
02
16
05
#150000
1!
1-
12
06
13
04
1/
1#
#160000
0!
0"
0-
0.
01
02
16
15
#170000
1!
1-
12
06
03
14
0/
0#
#180000
0!
1"
0-
1.
11
02
16
05
#190000
1!
1-
12
06
13
04
1/
1#
#200000
0!
0"
0-
0.
01
02
16
15
#210000
1!
1-
12
06
03
14
0/
0#
#220000
0!
1"
0-
1.
11
02
16
05
#230000
1!
1-
12
06
13
04
1/
1#
#240000
0!
0"
0-
0.
01
02
16
15
#250000
1!
1-
12
06
03
14
0/
0#
#260000
0!
1"
0-
1.
11
02
16
05
#270000
1!
1-
12
06
13
04
1/
1#
#280000
0!
0"
0-
0.
01
02
16
15
#290000
1!
1-
12
06
03
14
0/
0#
#300000
0!
1"
0-
1.
11
02
16
05
#310000
1!
1-
12
06
13
04
1/
1#
#320000
0!
0"
0-
0.
01
02
16
15
#330000
1!
1-
12
06
03
14
0/
0#
#340000
0!
1"
0-
1.
11
02
16
05
#350000
1!
1-
12
06
13
04
1/
1#
#360000
0!
0"
0-
0.
01
02
16
15
#370000
1!
1-
12
06
03
14
0/
0#
#380000
0!
1"
0-
1.
11
02
16
05
#390000
1!
1-
12
06
13
04
1/
1#
#400000
0!
0"
0-
0.
01
02
16
15
#410000
1!
1-
12
06
03
14
0/
0#
#420000
0!
1"
0-
1.
11
02
16
05
#430000
1!
1-
12
06
13
04
1/
1#
#440000
0!
0"
0-
0.
01
02
16
15
#450000
1!
1-
12
06
03
14
0/
0#
#460000
0!
1"
0-
1.
11
02
16
05
#470000
1!
1-
12
06
13
04
1/
1#
#480000
0!
0"
0-
0.
01
02
16
15
#490000
1!
1-
12
06
03
14
0/
0#
#500000
0!
1"
0-
1.
11
02
16
05
#510000
1!
1-
12
06
13
04
1/
1#
#520000
0!
0"
0-
0.
01
02
16
15
#530000
1!
1-
12
06
03
14
0/
0#
#540000
0!
1"
0-
1.
11
02
16
05
#550000
1!
1-
12
06
13
04
1/
1#
#560000
0!
0"
0-
0.
01
02
16
15
#570000
1!
1-
12
06
03
14
0/
0#
#580000
0!
1"
0-
1.
11
02
16
05
#590000
1!
1-
12
06
13
04
1/
1#
#600000
0!
0"
0-
0.
01
02
16
15
#610000
1!
1-
12
06
03
14
0/
0#
#620000
0!
1"
0-
1.
11
02
16
05
#630000
1!
1-
12
06
13
04
1/
1#
#640000
0!
0"
0-
0.
01
02
16
15
#650000
1!
1-
12
06
03
14
0/
0#
#660000
0!
1"
0-
1.
11
02
16
05
#670000
1!
1-
12
06
13
04
1/
1#
#680000
0!
0"
0-
0.
01
02
16
15
#690000
1!
1-
12
06
03
14
0/
0#
#700000
0!
1"
0-
1.
11
02
16
05
#710000
1!
1-
12
06
13
04
1/
1#
#720000
0!
0"
0-
0.
01
02
16
15
#730000
1!
1-
12
06
03
14
0/
0#
#740000
0!
1"
0-
1.
11
02
16
05
#750000
1!
1-
12
06
13
04
1/
1#
#760000
0!
0"
0-
0.
01
02
16
15
#770000
1!
1-
12
06
03
14
0/
0#
#780000
0!
1"
0-
1.
11
02
16
05
#790000
1!
1-
12
06
13
04
1/
1#
#800000
0!
0"
0-
0.
01
02
16
15
#810000
1!
1-
12
06
03
14
0/
0#
#820000
0!
1"
0-
1.
11
02
16
05
#830000
1!
1-
12
06
13
04
1/
1#
#840000
0!
0"
0-
0.
01
02
16
15
#850000
1!
1-
12
06
03
14
0/
0#
#860000
0!
1"
0-
1.
11
02
16
05
#870000
1!
1-
12
06
13
04
1/
1#
#880000
0!
0"
0-
0.
01
02
16
15
#890000
1!
1-
12
06
03
14
0/
0#
#900000
0!
1"
0-
1.
11
02
16
05
#910000
1!
1-
12
06
13
04
1/
1#
#920000
0!
0"
0-
0.
01
02
16
15
#930000
1!
1-
12
06
03
14
0/
0#
#940000
0!
1"
0-
1.
11
02
16
05
#950000
1!
1-
12
06
13
04
1/
1#
#960000
0!
0"
0-
0.
01
02
16
15
#970000
1!
1-
12
06
03
14
0/
0#
#980000
0!
1"
0-
1.
11
02
16
05
#990000
1!
1-
12
06
13
04
1/
1#
